Generalisability Theory Demo
…
# Calculate epsilon and phi for each combination
results <- n_grid %>%
  rowwise() %>%
  mutate(epsilon = calculate_epsilon(g, n_raters, n_items),
         phi = calculate_phi(g, n_raters, n_items))

print(results)

# A tibble: 100 × 4
# Rowwise: 
   n_raters n_items epsilon   phi
      <int>   <int>   <dbl> <dbl>
 1        1       1   0.160 0.123
 2        2       1   0.248 0.190
 3        3       1   0.304 0.232
 4        4       1   0.342 0.261
 5        5       1   0.371 0.282
 6        6       1   0.392 0.297
 7        7       1   0.409 0.310
 8        8       1   0.423 0.320
 9        9       1   0.434 0.328
10       10       1   0.444 0.335
# ℹ 90 more rows
…
