Generalisability Theory Demo
…
# Calculate epsilon and phi for each combination
results <- n_grid %>%
  rowwise() %>%
  mutate(epsilon = calculate_epsilon(g, n_raters, n_items),
         phi = calculate_phi(g, n_raters, n_items))

print(results)

# A tibble: 400 × 4
# Rowwise: 
   n_raters n_items epsilon    phi
      <int>   <int>   <dbl>  <dbl>
 1        1       1   0.124 0.0759
 2        2       1   0.216 0.136 
 3        3       1   0.287 0.185 
 4        4       1   0.344 0.225 
 5        5       1   0.390 0.259 
 6        6       1   0.429 0.287 
 7        7       1   0.461 0.312 
 8        8       1   0.489 0.334 
 9        9       1   0.513 0.353 
10       10       1   0.534 0.370 
# ℹ 390 more rows
…
